<?xml version="1.0" encoding="utf-8"?>
<OAI-PMH xmlns="http://www.openarchives.org/OAI/2.0/"
				 xmlns:xsi="http://www.w3.org/2001/XMLSchema-instance"
				 xsi:schemaLocation="http://www.openarchives.org/OAI/2.0/ http://www.openarchives.org/OAI/2.0/OAI-PMH.xsd">

	<responseDate>2010-05-26T07:44:01Z</responseDate>
	<request metadataPrefix="oai_dc" verb="ListIdentifiers">
	http://oai.bnf.fr/oai2/OAIHandler</request>
	<ListIdentifiers>
		<header>
			<identifier>oai:bnf.fr:gallica/ark:/12148/bpt6k852111</identifier>
			<datestamp>2009-01-08</datestamp>
			<setSpec>gallica:9:91</setSpec>
			<setSpec>gallica:monographies</setSpec>
		</header>
		<header>
			<identifier>oai:bnf.fr:gallica/ark:/12148/bpt6k85210p</identifier>
			<datestamp>2009-01-08</datestamp>
			<setSpec>gallica:9:91</setSpec>
			<setSpec>gallica:monographies</setSpec>
		</header>
		<header>
			<identifier>oai:bnf.fr:gallica/ark:/12148/bpt6k836271</identifier>
			<datestamp>2009-01-08</datestamp>
			<setSpec>gallica:3:32</setSpec>
			<setSpec>gallica:monographies</setSpec>
		</header>
		<header>
			<identifier>oai:bnf.fr:gallica/ark:/12148/bpt6k283631</identifier>
			<datestamp>2009-01-08</datestamp>
			<setSpec>gallica:6:60</setSpec>
			<setSpec>gallica:monographies</setSpec>
		</header>
		<header>
			<identifier>oai:bnf.fr:gallica/ark:/12148/bpt6k701371</identifier>
			<datestamp>2009-01-08</datestamp>
			<setSpec>gallica:8:84</setSpec>
			<setSpec>gallica:monographies</setSpec>
		</header>
		<header>
			<identifier>oai:bnf.fr:gallica/ark:/12148/bpt6k116574j</identifier>
			<datestamp>2009-01-08</datestamp>
			<setSpec>gallica:9:91</setSpec>
			<setSpec>gallica:monographies</setSpec>
		</header>
		<header>
			<identifier>oai:bnf.fr:gallica/ark:/12148/bpt6k91258x</identifier>
			<datestamp>2009-01-08</datestamp>
			<setSpec>gallica:8:84</setSpec>
			<setSpec>gallica:monographies</setSpec>
		</header>
		<header>
			<identifier>oai:bnf.fr:gallica/ark:/12148/bpt6k40928n</identifier>
			<datestamp>2009-01-08</datestamp>
			<setSpec>gallica:9:944</setSpec>
			<setSpec>gallica:monographies</setSpec>
		</header>
		<header>
			<identifier>oai:bnf.fr:gallica/ark:/12148/bpt6k82961s</identifier>
			<datestamp>2009-01-08</datestamp>
			<setSpec>gallica:9:94</setSpec>
			<setSpec>gallica:monographies</setSpec>
		</header>
		<header>
			<identifier>oai:bnf.fr:gallica/ark:/12148/bpt6k109340z</identifier>
			<datestamp>2009-01-08</datestamp>
			<setSpec>gallica:2:20</setSpec>
			<setSpec>gallica:monographies</setSpec>
		</header>
		<header>
			<identifier>oai:bnf.fr:gallica/ark:/12148/bpt6k55208h</identifier>
			<datestamp>2009-01-08</datestamp>
			<setSpec>gallica:3:33</setSpec>
			<setSpec>gallica:monographies</setSpec>
		</header>
		<header>
			<identifier>
			oai:bnf.fr:gallica/ark:/12148/btv1b7711393v</identifier>
			<datestamp>2009-01-08</datestamp>
			<setSpec>gallica:cartes:carte</setSpec>
		</header>
		<header>
			<identifier>oai:bnf.fr:gallica/ark:/12148/bpt6k539068</identifier>
			<datestamp>2009-01-08</datestamp>
			<setSpec>gallica:2:20</setSpec>
			<setSpec>gallica:monographies</setSpec>
		</header>
		<header>
			<identifier>oai:bnf.fr:gallica/ark:/12148/bpt6k1078946</identifier>
			<datestamp>2009-01-08</datestamp>
			<setSpec>gallica:7:70</setSpec>
			<setSpec>gallica:monographies</setSpec>
		</header>
		<header>
			<identifier>
			oai:bnf.fr:gallica/ark:/12148/btv1b6918066c</identifier>
			<datestamp>2009-01-08</datestamp>
			<setSpec>gallica:images:photographies</setSpec>
		</header>
		<header>
			<identifier>
			oai:bnf.fr:gallica/ark:/12148/btv1b6923565d</identifier>
			<datestamp>2009-01-08</datestamp>
			<setSpec>gallica:images:photographies</setSpec>
		</header>
		<header>
			<identifier>
			oai:bnf.fr:gallica/ark:/12148/btv1b69085499</identifier>
			<datestamp>2009-01-08</datestamp>
			<setSpec>gallica:images:photographies</setSpec>
		</header>
		<header>
			<identifier>
			oai:bnf.fr:gallica/ark:/12148/btv1b7000183h</identifier>
			<datestamp>2009-01-08</datestamp>
			<setSpec>gallica:images:dessins</setSpec>
		</header>
		<header>
			<identifier>oai:bnf.fr:gallica/ark:/12148/bpt6k66376q</identifier>
			<datestamp>2009-01-08</datestamp>
			<setSpec>gallica:8:84</setSpec>
			<setSpec>gallica:monographies</setSpec>
		</header>
		<header>
			<identifier>
			oai:bnf.fr:gallica/ark:/12148/btv1b6901711c</identifier>
			<datestamp>2009-01-08</datestamp>
			<setSpec>gallica:images:dessins</setSpec>
		</header>
		<header>
			<identifier>oai:bnf.fr:gallica/ark:/12148/bpt6k69505g</identifier>
			<datestamp>2009-01-08</datestamp>
			<setSpec>gallica:8:80</setSpec>
			<setSpec>gallica:monographies</setSpec>
		</header>
		<header>
			<identifier>
			oai:bnf.fr:gallica/ark:/12148/btv1b67000041</identifier>
			<datestamp>2009-01-08</datestamp>
			<setSpec>gallica:amerique</setSpec>
			<setSpec>gallica:cartes:carte</setSpec>
		</header>
		<header>
			<identifier>oai:bnf.fr:gallica/ark:/12148/bpt6k50553z</identifier>
			<datestamp>2009-01-08</datestamp>
			<setSpec>gallica:0:03</setSpec>
			<setSpec>gallica:monographies</setSpec>
		</header>
		<header>
			<identifier>oai:bnf.fr:gallica/ark:/12148/bpt6k50550x</identifier>
			<datestamp>2009-01-08</datestamp>
			<setSpec>gallica:0:03</setSpec>
			<setSpec>gallica:monographies</setSpec>
		</header>
		<header>
			<identifier>
			oai:bnf.fr:gallica/ark:/12148/btv1b69103146</identifier>
			<datestamp>2009-01-08</datestamp>
			<setSpec>gallica:images:photographies</setSpec>
		</header>
		<header>
			<identifier>oai:bnf.fr:gallica/ark:/12148/bpt6k122849g</identifier>
			<datestamp>2009-01-08</datestamp>
			<setSpec>gallica:8:80</setSpec>
			<setSpec>gallica:monographies</setSpec>
		</header>
		<header>
			<identifier>oai:bnf.fr:gallica/ark:/12148/bpt6k71519f</identifier>
			<datestamp>2009-01-08</datestamp>
			<setSpec>gallica:8:85</setSpec>
			<setSpec>gallica:monographies</setSpec>
		</header>
		<header>
			<identifier>oai:bnf.fr:gallica/ark:/12148/bpt6k717984</identifier>
			<datestamp>2009-01-08</datestamp>
			<setSpec>gallica:7:70</setSpec>
			<setSpec>gallica:monographies</setSpec>
		</header>
		<header>
			<identifier>oai:bnf.fr:gallica/ark:/12148/bpt6k200717j</identifier>
			<datestamp>2009-01-08</datestamp>
			<setSpec>gallica:8:84</setSpec>
			<setSpec>gallica:monographies</setSpec>
		</header>
		<header>
			<identifier>oai:bnf.fr:gallica/ark:/12148/bpt6k527112</identifier>
			<datestamp>2009-01-08</datestamp>
			<setSpec>gallica:monographies</setSpec>
		</header>
		<header>
			<identifier>
			oai:bnf.fr:gallica/ark:/12148/btv1b65002314</identifier>
			<datestamp>2009-01-08</datestamp>
			<setSpec>gallica:cartes</setSpec>
			<setSpec>gallica:italie</setSpec>
		</header>
		<header>
			<identifier>oai:bnf.fr:gallica/ark:/12148/bpt6k45303v</identifier>
			<datestamp>2009-01-08</datestamp>
			<setSpec>gallica:2:27</setSpec>
			<setSpec>gallica:monographies</setSpec>
		</header>
		<header>
			<identifier>oai:bnf.fr:gallica/ark:/12148/bpt6k395523h</identifier>
			<datestamp>2009-01-08</datestamp>
			<setSpec>gallica:partitions</setSpec>
		</header>
		<header>
			<identifier>
			oai:bnf.fr:gallica/ark:/12148/btv1b69270707</identifier>
			<datestamp>2009-01-08</datestamp>
			<setSpec>gallica:images:photographies</setSpec>
		</header>
		<header>
			<identifier>oai:bnf.fr:gallica/ark:/12148/bpt6k65959j</identifier>
			<datestamp>2009-01-08</datestamp>
			<setSpec>gallica:8:84</setSpec>
			<setSpec>gallica:monographies</setSpec>
		</header>
		<header>
			<identifier>
			oai:bnf.fr:gallica/ark:/12148/btv1b70008687</identifier>
			<datestamp>2009-01-08</datestamp>
			<setSpec>gallica:images:dessins</setSpec>
		</header>
		<header>
			<identifier>oai:bnf.fr:gallica/ark:/12148/bpt6k70301k</identifier>
			<datestamp>2009-01-08</datestamp>
			<setSpec>gallica:8:80</setSpec>
			<setSpec>gallica:monographies</setSpec>
		</header>
		<header>
			<identifier>oai:bnf.fr:gallica/ark:/12148/bpt6k625033</identifier>
			<datestamp>2009-01-08</datestamp>
			<setSpec>gallica:8:84</setSpec>
			<setSpec>gallica:monographies</setSpec>
		</header>
		<header>
			<identifier>
			oai:bnf.fr:gallica/ark:/12148/btv1b69090138</identifier>
			<datestamp>2009-01-08</datestamp>
			<setSpec>gallica:images:photographies</setSpec>
		</header>
		<header>
			<identifier>oai:bnf.fr:gallica/ark:/12148/bpt6k486291g</identifier>
			<datestamp>2009-01-08</datestamp>
			<setSpec>gallica:periodiques:fascicules</setSpec>
		</header>
		<header>
			<identifier>oai:bnf.fr:gallica/ark:/12148/bpt6k35276k</identifier>
			<datestamp>2009-01-08</datestamp>
			<setSpec>gallica:9:91</setSpec>
			<setSpec>gallica:france</setSpec>
			<setSpec>gallica:monographies</setSpec>
		</header>
		<header>
			<identifier>oai:bnf.fr:gallica/ark:/12148/bpt6k486292v</identifier>
			<datestamp>2009-01-08</datestamp>
			<setSpec>gallica:periodiques:fascicules</setSpec>
		</header>
		<header>
			<identifier>oai:bnf.fr:gallica/ark:/12148/bpt6k4862950</identifier>
			<datestamp>2009-01-08</datestamp>
			<setSpec>gallica:periodiques:fascicules</setSpec>
		</header>
		<header>
			<identifier>
			oai:bnf.fr:gallica/ark:/12148/btv1b78456209</identifier>
			<datestamp>2009-01-08</datestamp>
			<setSpec>gallica:amerique</setSpec>
			<setSpec>gallica:images:dessins</setSpec>
		</header>
		<header>
			<identifier>oai:bnf.fr:gallica/ark:/12148/bpt6k4863009</identifier>
			<datestamp>2009-01-08</datestamp>
			<setSpec>gallica:periodiques:fascicules</setSpec>
		</header>
		<header>
			<identifier>oai:bnf.fr:gallica/ark:/12148/bpt6k486299h</identifier>
			<datestamp>2009-01-08</datestamp>
			<setSpec>gallica:periodiques:fascicules</setSpec>
		</header>
		<header>
			<identifier>oai:bnf.fr:gallica/ark:/12148/bpt6k204308f</identifier>
			<datestamp>2009-01-08</datestamp>
			<setSpec>gallica:8:84</setSpec>
			<setSpec>gallica:monographies</setSpec>
		</header>
		<header>
			<identifier>oai:bnf.fr:gallica/ark:/12148/bpt6k72757s</identifier>
			<datestamp>2009-01-08</datestamp>
			<setSpec>gallica:2:27</setSpec>
			<setSpec>gallica:monographies</setSpec>
		</header>
		<header>
			<identifier>oai:bnf.fr:gallica/ark:/12148/bpt6k486733q</identifier>
			<datestamp>2009-01-08</datestamp>
			<setSpec>gallica:periodiques:fascicules</setSpec>
		</header>
		<header>
			<identifier>oai:bnf.fr:gallica/ark:/12148/bpt6k29318f</identifier>
			<datestamp>2009-01-08</datestamp>
			<setSpec>gallica:5:51</setSpec>
			<setSpec>gallica:monographies</setSpec>
		</header>
		<header>
			<identifier>oai:bnf.fr:gallica/ark:/12148/bpt6k486301p</identifier>
			<datestamp>2009-01-08</datestamp>
			<setSpec>gallica:periodiques:fascicules</setSpec>
		</header>
		<header>
			<identifier>oai:bnf.fr:gallica/ark:/12148/bpt6k107036d</identifier>
			<datestamp>2009-01-08</datestamp>
			<setSpec>gallica:9:91</setSpec>
			<setSpec>gallica:italie</setSpec>
			<setSpec>gallica:monographies</setSpec>
		</header>
		<header>
			<identifier>oai:bnf.fr:gallica/ark:/12148/bpt6k4862937</identifier>
			<datestamp>2009-01-08</datestamp>
			<setSpec>gallica:periodiques:fascicules</setSpec>
		</header>
		<header>
			<identifier>oai:bnf.fr:gallica/ark:/12148/bpt6k486297r</identifier>
			<datestamp>2009-01-08</datestamp>
			<setSpec>gallica:periodiques:fascicules</setSpec>
		</header>
		<header>
			<identifier>oai:bnf.fr:gallica/ark:/12148/bpt6k51113v</identifier>
			<datestamp>2009-01-08</datestamp>
			<setSpec>gallica:6:61</setSpec>
			<setSpec>gallica:monographies</setSpec>
		</header>
		<header>
			<identifier>oai:bnf.fr:gallica/ark:/12148/bpt6k486296c</identifier>
			<datestamp>2009-01-08</datestamp>
			<setSpec>gallica:periodiques:fascicules</setSpec>
		</header>
		<header>
			<identifier>
			oai:bnf.fr:gallica/ark:/12148/cb326811732/date</identifier>
			<datestamp>2009-01-08</datestamp>
			<setSpec>gallica:periodiques:titres</setSpec>
		</header>
		<header>
			<identifier>oai:bnf.fr:gallica/ark:/12148/bpt6k95886s</identifier>
			<datestamp>2009-01-08</datestamp>
			<setSpec>gallica:3:34</setSpec>
			<setSpec>gallica:monographies</setSpec>
		</header>
		<header>
			<identifier>
			oai:bnf.fr:gallica/ark:/12148/btv1b6926031t</identifier>
			<datestamp>2009-01-08</datestamp>
			<setSpec>gallica:images:photographies</setSpec>
		</header>
		<header>
			<identifier>oai:bnf.fr:gallica/ark:/12148/bpt6k486294m</identifier>
			<datestamp>2009-01-08</datestamp>
			<setSpec>gallica:periodiques:fascicules</setSpec>
		</header>
		<header>
			<identifier>oai:bnf.fr:gallica/ark:/12148/bpt6k4862984</identifier>
			<datestamp>2009-01-08</datestamp>
			<setSpec>gallica:periodiques:fascicules</setSpec>
		</header>
		<header>
			<identifier>oai:bnf.fr:gallica/ark:/12148/bpt6k686928</identifier>
			<datestamp>2009-01-08</datestamp>
			<setSpec>gallica:8:84</setSpec>
			<setSpec>gallica:monographies</setSpec>
		</header>
		<header>
			<identifier>oai:bnf.fr:gallica/ark:/12148/bpt6k51298b</identifier>
			<datestamp>2009-01-08</datestamp>
			<setSpec>gallica:8:85</setSpec>
			<setSpec>gallica:monographies</setSpec>
		</header>
		<header>
			<identifier>
			oai:bnf.fr:gallica/ark:/12148/btv1b6924899j</identifier>
			<datestamp>2009-01-08</datestamp>
			<setSpec>gallica:images:photographies</setSpec>
		</header>
		<header>
			<identifier>oai:bnf.fr:gallica/ark:/12148/bpt6k71151t</identifier>
			<datestamp>2009-01-08</datestamp>
			<setSpec>gallica:9:944</setSpec>
			<setSpec>gallica:monographies</setSpec>
		</header>
		<header>
			<identifier>
			oai:bnf.fr:gallica/ark:/12148/bpt6k54365167</identifier>
			<datestamp>2009-01-08</datestamp>
			<setSpec>gallica:periodiques:fascicules</setSpec>
		</header>
		<header>
			<identifier>
			oai:bnf.fr:gallica/ark:/12148/bpt6k54291153</identifier>
			<datestamp>2009-01-08</datestamp>
			<setSpec>gallica:periodiques:fascicules</setSpec>
		</header>
		<header>
			<identifier>oai:bnf.fr:gallica/ark:/12148/bpt6k365592</identifier>
			<datestamp>2009-01-08</datestamp>
			<setSpec>gallica:9:944</setSpec>
			<setSpec>gallica:monographies</setSpec>
		</header>
		<header>
			<identifier>oai:bnf.fr:gallica/ark:/12148/bpt6k519419</identifier>
			<datestamp>2009-01-08</datestamp>
			<setSpec>gallica:9:944</setSpec>
			<setSpec>gallica:monographies</setSpec>
		</header>
		<header>
			<identifier>
			oai:bnf.fr:gallica/ark:/12148/cb328703578/date</identifier>
			<datestamp>2009-01-08</datestamp>
			<setSpec>gallica:periodiques:titres</setSpec>
		</header>
		<header>
			<identifier>oai:bnf.fr:gallica/ark:/12148/bpt6k36558q</identifier>
			<datestamp>2009-01-08</datestamp>
			<setSpec>gallica:9:944</setSpec>
			<setSpec>gallica:monographies</setSpec>
		</header>
		<header>
			<identifier>oai:bnf.fr:gallica/ark:/12148/bpt6k57469r</identifier>
			<datestamp>2009-01-08</datestamp>
			<setSpec>gallica:8:84</setSpec>
			<setSpec>gallica:monographies</setSpec>
		</header>
		<header>
			<identifier>
			oai:bnf.fr:gallica/ark:/12148/bpt6k5436515t</identifier>
			<datestamp>2009-01-08</datestamp>
			<setSpec>gallica:periodiques:fascicules</setSpec>
		</header>
		<header>
			<identifier>oai:bnf.fr:gallica/ark:/12148/bpt6k39674z</identifier>
			<datestamp>2009-01-08</datestamp>
			<setSpec>gallica:9:94</setSpec>
			<setSpec>gallica:afrique</setSpec>
			<setSpec>gallica:monographies</setSpec>
		</header>
		<header>
			<identifier>oai:bnf.fr:gallica/ark:/12148/bpt6k2015655</identifier>
			<datestamp>2009-01-08</datestamp>
			<setSpec>gallica:9:944</setSpec>
			<setSpec>gallica:monographies</setSpec>
		</header>
		<header>
			<identifier>oai:bnf.fr:gallica/ark:/12148/bpt6k1103023</identifier>
			<datestamp>2009-01-08</datestamp>
			<setSpec>gallica:6:60</setSpec>
			<setSpec>gallica:monographies</setSpec>
		</header>
		<header>
			<identifier>oai:bnf.fr:gallica/ark:/12148/bpt6k2015689</identifier>
			<datestamp>2009-01-08</datestamp>
			<setSpec>gallica:9:944</setSpec>
			<setSpec>gallica:monographies</setSpec>
		</header>
		<header>
			<identifier>
			oai:bnf.fr:gallica/ark:/12148/btv1b7759463n</identifier>
			<datestamp>2009-01-08</datestamp>
			<setSpec>gallica:afrique</setSpec>
			<setSpec>gallica:cartes:carte</setSpec>
		</header>
		<header>
			<identifier>oai:bnf.fr:gallica/ark:/12148/bpt6k201567x</identifier>
			<datestamp>2009-01-08</datestamp>
			<setSpec>gallica:9:944</setSpec>
			<setSpec>gallica:monographies</setSpec>
		</header>
		<header>
			<identifier>
			oai:bnf.fr:gallica/ark:/12148/btv1b69178929</identifier>
			<datestamp>2009-01-08</datestamp>
			<setSpec>gallica:images:photographies</setSpec>
		</header>
		<header>
			<identifier>oai:bnf.fr:gallica/ark:/12148/bpt6k201566j</identifier>
			<datestamp>2009-01-08</datestamp>
			<setSpec>gallica:9:944</setSpec>
			<setSpec>gallica:monographies</setSpec>
		</header>
		<header>
			<identifier>oai:bnf.fr:gallica/ark:/12148/bpt6k72991h</identifier>
			<datestamp>2009-01-08</datestamp>
			<setSpec>gallica:2:20</setSpec>
			<setSpec>gallica:monographies</setSpec>
		</header>
		<header>
			<identifier>oai:bnf.fr:gallica/ark:/12148/bpt6k1037353</identifier>
			<datestamp>2009-01-08</datestamp>
			<setSpec>gallica:3:306</setSpec>
			<setSpec>gallica:afrique</setSpec>
			<setSpec>gallica:monographies</setSpec>
		</header>
		<header>
			<identifier>oai:bnf.fr:gallica/ark:/12148/bpt6k82955v</identifier>
			<datestamp>2009-01-08</datestamp>
			<setSpec>gallica:9:91</setSpec>
			<setSpec>gallica:monographies</setSpec>
		</header>
		<header>
			<identifier>oai:bnf.fr:gallica/ark:/12148/bpt6k1273643</identifier>
			<datestamp>2009-01-08</datestamp>
			<setSpec>gallica:audio</setSpec>
		</header>
		<header>
			<identifier>oai:bnf.fr:gallica/ark:/12148/bpt6k2094003</identifier>
			<datestamp>2009-01-08</datestamp>
			<setSpec>gallica:8:84</setSpec>
			<setSpec>gallica:monographies</setSpec>
		</header>
		<header>
			<identifier>oai:bnf.fr:gallica/ark:/12148/bpt6k2093999</identifier>
			<datestamp>2009-01-08</datestamp>
			<setSpec>gallica:8:84</setSpec>
			<setSpec>gallica:monographies</setSpec>
		</header>
		<header>
			<identifier>oai:bnf.fr:gallica/ark:/12148/bpt6k209398x</identifier>
			<datestamp>2009-01-08</datestamp>
			<setSpec>gallica:8:84</setSpec>
			<setSpec>gallica:monographies</setSpec>
		</header>
		<header>
			<identifier>oai:bnf.fr:gallica/ark:/12148/bpt6k209401g</identifier>
			<datestamp>2009-01-08</datestamp>
			<setSpec>gallica:8:84</setSpec>
			<setSpec>gallica:monographies</setSpec>
		</header>
		<header>
			<identifier>oai:bnf.fr:gallica/ark:/12148/bpt6k1169276</identifier>
			<datestamp>2009-01-08</datestamp>
			<setSpec>gallica:8:84</setSpec>
			<setSpec>gallica:monographies</setSpec>
		</header>
		<header>
			<identifier>oai:bnf.fr:gallica/ark:/12148/bpt6k54069x</identifier>
			<datestamp>2009-01-08</datestamp>
			<setSpec>gallica:6:61</setSpec>
			<setSpec>gallica:monographies</setSpec>
		</header>
		<header>
			<identifier>
			oai:bnf.fr:gallica/ark:/12148/btv1b6923593q</identifier>
			<datestamp>2009-01-08</datestamp>
			<setSpec>gallica:images:photographies</setSpec>
		</header>
		<header>
			<identifier>oai:bnf.fr:gallica/ark:/12148/bpt6k47347z</identifier>
			<datestamp>2009-01-08</datestamp>
			<setSpec>gallica:3:33</setSpec>
			<setSpec>gallica:monographies</setSpec>
		</header>
		<header>
			<identifier>oai:bnf.fr:gallica/ark:/12148/bpt6k371983</identifier>
			<datestamp>2009-01-08</datestamp>
			<setSpec>gallica:8:84</setSpec>
			<setSpec>gallica:monographies</setSpec>
		</header>
		<header>
			<identifier>oai:bnf.fr:gallica/ark:/12148/bpt6k46575h</identifier>
			<datestamp>2009-01-08</datestamp>
			<setSpec>gallica:2:20</setSpec>
			<setSpec>gallica:monographies</setSpec>
		</header>
		<header>
			<identifier>oai:bnf.fr:gallica/ark:/12148/bpt6k202750t</identifier>
			<datestamp>2009-01-08</datestamp>
			<setSpec>gallica:5:53</setSpec>
			<setSpec>gallica:5:54</setSpec>
			<setSpec>gallica:monographies</setSpec>
		</header>
		<header>
			<identifier>oai:bnf.fr:gallica/ark:/12148/bpt6k202752k</identifier>
			<datestamp>2009-01-08</datestamp>
			<setSpec>gallica:5:53</setSpec>
			<setSpec>gallica:5:54</setSpec>
			<setSpec>gallica:monographies</setSpec>
		</header>
		<header>
			<identifier>oai:bnf.fr:gallica/ark:/12148/bpt6k2027516</identifier>
			<datestamp>2009-01-08</datestamp>
			<setSpec>gallica:5:53</setSpec>
			<setSpec>gallica:5:54</setSpec>
			<setSpec>gallica:monographies</setSpec>
		</header>
		<header>
			<identifier>oai:bnf.fr:gallica/ark:/12148/bpt6k715392</identifier>
			<datestamp>2009-01-08</datestamp>
			<setSpec>gallica:8:88</setSpec>
			<setSpec>gallica:monographies</setSpec>
		</header>
		<header>
			<identifier>oai:bnf.fr:gallica/ark:/12148/bpt6k45336t</identifier>
			<datestamp>2009-01-08</datestamp>
			<setSpec>gallica:2:20</setSpec>
			<setSpec>gallica:monographies</setSpec>
		</header>
		<resumptionToken expirationDate="2010-05-26T08:44:18Z"
										 completeListSize="980266" cursor="0">
		1!2!2758354!158!100!980266!oai_dc</resumptionToken>
	</ListIdentifiers>
</OAI-PMH>
